﻿2016 12 13
ps -ef
kill -9 프로세서 번호

포트 중첩되어서 가동 안될시 
listener :///3000

2016 12 8
유저아이디는 서버에 저장 
토근을 서버에서 주어서 클라와 통신
현재 트랜드 

2016 12 7 수요일

사용자 켤때마다 위치값 받기 (location )
search tip 입력하는 부분 
해쉬태그랑 상품이름 or 처리 (완료)
발표 피피티 


어썰트 슈트 차이
모카

2016 12 6





callback hell이 될수 밖에 없는 이유 

비동기 태스크가 응답을 기다리지않고 바로 쏴주면 나머지 응답이 따라가지 못함
따라서 async 태스크를 사용해야할 필요성을 느낌 

공부필요 
몽고디비 갈아 엎을 필요성 느낌 
====================================
2016 12 5

mocha 라는 기술이 잇는데 
서버에 안돌리고도 작동 가능한지 여부 판단 !!! 


이미지 테이블 새로 만들어서 
배열형태로 보내줌 

pm2 forever 보다 좋음 

=================

2016 12 2





//검색 초기 화면 
//쿼리스트링으로 상품코드 입력하면 
//해당 상품코드 정보가 나옴
///goods?goodscode=usa
//goods?hashtag = ""
//goods?country = ""
//goods?name = ""
router.route('/goods')
        .get(showGoodslist);



//id 로 검색 하면 세부 데이터가 나옴
//goods/:id(1,2,3~)
//해쉬태그, 가격, 판매처, 팁
router.route('/goods/:id')
        .get(showGoodsDetail);


//전체 팁 검색
router.route('/tips')
        .get(showTiplist);

//전체 나라 코드 검색
router.route('/country')
        .get(showCountrylist);



2016 12 1 



SELECT * FROM sadajo.hashtag;

select goods_code, hashtag from hashtag;
select goods_code, hashtag from hashtag where goods_code like '%USA%';

select  goods.goods_code,
		goods.goods_img,
		goods.country,
        goods.goods_name,
        hashtag.hashtag
        from goods join hashtag on goods.goods_code = hashtag.goods_code ;


select * from goods where goods_code = 'USA_001';

		
	select  goods.goods_code, 
		goods.goods_name,
		hashtag.hashtag
        from goods inner join hashtag on goods.goods_code = hashtag.goods_code where hashtag.goods_code like '%USA%';
	





푸시 - 원래 데이터 알림 
지금은 데이터 전달 까지 가능 


기기에 대한 토큰이 필요 
디바이스 토큰 안드로이드에서 fcm 에서 받는다 
post 로 만든다. 

파이어베이스 
클라우드 메시징 

서버키 or 토큰 사용

fcm docs 찾을것 






2016 11 28


advenced rest client 어떻게 하는지 까먹음 ....

where 절 받아서 정확히 구동 되는 지 확인 해야함 .!!


해시태그는 나중에
상품명, 최신순, 인기순 


s3 이따 학교에서 해봐야함 


검색 -> 페이지 네이션 사용해야함 
where += 이런식?

코드가 복잡함 ...




역 지오코딩 ㅡㅡ

로컬에서 돌릴때 
node --use_strict app.js

형님 router, model.js 소스 merge  했으나 
형님 post 께 작동이 안됨
	-이유 body parser가 먼저 위치 해야함 위에서
	나중에 express portable 쓰면 bodyparser 필요없음
	request field쓰면 됨


rds 는 나중에 합치기로 
현대 dbconfig 2개로 돌림 

배열 객체 부분 지워서 줘야함 ....

비번 ppk. 공유함 
http://dustywind.cafe24.com/board_uQaJ46/1388
//node js 

https://github.com/wannabewize/Node-Samples
//강사님 깃 홈피
https://github.com/Jinmo/nodejs.kr-api/blob/master/nodejs.org_kr/docs/v0.4.10/api/url.markdown
//URL

만들어야 할 부분 
아이템을 사다 줄 쇼퍼맨
이미지 
닉네임

얼마에 구매했어여?
환율 
상품명 해외 국내 

어디서 샀어여 
위치 


팁 post
   update
   delete

상품 post
      update
       delete

해시태그 
판매처
환율 따로 테이블 만들것 




2016 11 25
tip 추가 


합병 시켜야 함. 
디비 

현재 가능한 api 


router.get('/goods', showGoodslist);
router.get('/goods/:id', showGoodsDetail);
router.get('/tips', showTiplist);
router.get('/country', showCountrylist);
router.get('/good',searchCountry);

워터폴이나 시리즈 는 비동기식 함수를 처리할때 스는거임

따라서 같은 api에 다른 메소드를 사용하기 위해서는 
조건 제어로 해야함




==============================================================================================
2016 11 24
http://codelion.net/weeks/overview/1
http://cinema4dr12.tistory.com/entry/WebApp-Amazon-Web-Serivce-EC2%EB%A5%BC-%EC%9D%B4%EC%9A%A9%ED%95%98%EC%97%AC-%EC%9B%B9-%EC%84%9C%EB%B2%84-%EA%B5%AC%EC%B6%95%ED%95%98%EA%B8%B0
//맥에서 아마존 노드 설치

https://pyrasis.com/book/TheArtOfAmazonWebServices/Chapter04/03
//tag instance -> 요금 확인 


http://cinema4dr12.tistory.com/entry/WebApp-AWS-Mac%EC%97%90%EC%84%9C-AWS-Windows-Server-%EC%9B%90%EA%B2%A9%EC%A0%9C%EC%96%B4%ED%95%98%EA%B8%B0
맥에서 microsoft remote 이용하여 접속하기 










==================================================================
2016 11 23
https://github.com/egoing
http://gun0912.tistory.com/category/IT/AWS
http://pyrasis.com/tags.html#아마존 웹 서비스-ref 
https://github.com/Inaamhusain/Create-RESTful-API-Using-Node.js-Express-4 
https://github.com/wannabewize/Node-Samples/tree/master/05.Express
http://lazydev.tistory.com/entry/Node-JS6-REST-api-%EB%A7%8C%EB%93%A4%EA%B8%B0GET


푸시 
rdb컬럼 따로 만들고 
푸시 받을건지 아닐건지 
yes or no 


삭제 기능이 구현이 이상하게 안됨 멎2ㅣ ..
더미데이터 
국가데이터 다 받음 

더미데이터 삽입 완료 

유저테이블
카카오톡 페이스북 -> 토큰 저장할수 있는 공간으로 
유저 정보는 post방식으로 넘겨서 보안 
푸시서비스 .... 
로그인 여부 파악할수 있게 컬럼 설정 
쿼리스트링을 붙여서 검색할수 있게 작성 가능하게 ... .
이미지 처리
aws는 어떻게 할것인지 


=================================================================


2016 11 22
CSV -> UTF8변환 메모장 하여서 저장 
맨 위에 한글 명 잇어서 제목 다지우고 넣으니 잘됨 .


삽입 검색 완료
삭제 작성중 
되면 이름바궈서 해당 데이터 불러올수 있게 하면 됨 .



이제 API 설계대로 작성 후 AWS로 동작 가능하게 실행 해야함. 
https://github.com/felixge
https://github.com/mysqljs/mysql
//깃허브 개발자 -> 좋은 자료 많음 node mysql 연동 등등

https://opentutorials.org/course/2136/12021
//생활코딩 



2016.11.21
관리자 페이지 만드는 중 
해당 디비에 전체 데이터 json 으로 불러와야함 .

api올리긴 했지만 미완성 
계속 수정해야함. 




2016 11 18
api 디비 수정
//http://egloos.zum.com/sweeper/v/3005563 
제약 조건(Constraint) #1 (의미와 설정)

//http://blog.naver.com/PostView.nhn?blogId=kerusia85&logNo=30164952163
ejs 사용법

관리자 페이지 따로 만들어야함 
기획자님이 더미데이터 보내주시다고함 
사진은 따로 받아서 s3로 이용 주소로 이용한다 .




2016 11 17

개발 프로젝트 시작

클라이언트 단에서 사진 기능 첨가 필요할듯 상품 인증 때문에 

그리고 상품 품절시 어떻게 할것인가 ?

//형님
마이페이지
거래내역

//형님
채팅

//형님
홈화면
여행일정등록
쇼핑리스트 목록 보기 


\=================
//민수
검색
상품상세

//민수
로그인
관리자
===============================================================